num devices: 6
mype: 0 dev# 0 device name: Tesla V100-SXM2-16GB bus id: 4 pci-e device id: 0 
num devices: 6
mype: 0 dev# 0 device name: Tesla V100-SXM2-16GB bus id: 4 pci-e device id: 0 
WARN: IB HCA and GPU are not connected to a PCIe switch so IB performance can be limited depending on the CPU generation 
   size(bytes) 	 latency(us)
      1 	     1.99 
      2 	     2.05 
      4 	     1.96 
      8 	     1.96 
     16 	     1.94 
     32 	     1.94 
     64 	     1.98 
    128 	     1.97 
    256 	     2.01 
    512 	     2.05 
   1024 	     2.15 
   2048 	     2.37 
   4096 	     2.74 
   8192 	     3.93 
  16384 	     5.16 
  32768 	     7.22 
  65536 	     9.87 
 131072 	    15.15 
 262144 	    25.75 
 524288 	    61.06 
1048576 	    94.42 
2097152 	   186.73 
4194304 	   370.47 
8388608 	   737.62 
16777216 	  1474.61 
33554432 	  2936.15 
67108864 	  5851.03 
134217728 	 11847.02 
