num devices: 6
mype: 0 dev# 0 device name: Tesla V100-SXM2-16GB bus id: 4 pci-e device id: 0 
num devices: 6
mype: 0 dev# 0 device name: Tesla V100-SXM2-16GB bus id: 4 pci-e device id: 0 
/ccs/home/tgroves/tmp/nvshmem_0.3.0/perftest/perftest_install/host/pt-to-pt/stream_latency: invalid option -- 'k'
[h34n09:176706] *** Process received signal ***
[h34n09:176706] Signal: Segmentation fault (11)
[h34n09:176706] Signal code:  (3)
[h34n09:176706] Failing at address: 0x78706d745f33365f
[h34n09:176706] [ 0] [0x2000000504d8]
[h34n09:176706] [ 1] [0x7ffffb01c110]
[h34n09:176706] [ 2] /lib64/libcuda.so.1(+0x10b4b0)[0x20000020b4b0]
[h34n09:176706] [ 3] /lib64/libcuda.so.1(cuStreamDestroy_v2+0x68)[0x2000003d40c8]
[h34n09:176706] [ 4] /sw/summit/cuda/10.1.243/lib64/libcudart.so.10.1(+0xe354)[0x2000010fe354]
[h34n09:176706] [ 5] /sw/summit/cuda/10.1.243/lib64/libcudart.so.10.1(cudaStreamDestroy+0x228)[0x20000113bf48]
[h34n09:176706] [ 6] /ccs/home/tgroves/tmp/nvshmem_0.3.0/perftest/perftest_install/host/pt-to-pt/stream_latency[0x1000449c]
[h34n09:176706] [ 7] /lib64/libc.so.6(+0x25200)[0x200001775200]
[h34n09:176706] [ 8] /lib64/libc.so.6(__libc_start_main+0xc4)[0x2000017753f4]
[h34n09:176706] *** End of error message ***
/ccs/home/tgroves/tmp/nvshmem_0.3.0/perftest/perftest_install/host/pt-to-pt/stream_latency: invalid option -- 'k'
[h34n03:165375] *** Process received signal ***
[h34n03:165375] Signal: Segmentation fault (11)
[h34n03:165375] Signal code:  (3)
[h34n03:165375] Failing at address: 0x78706d745f33365f
[h34n03:165375] [ 0] [0x2000000504d8]
[h34n03:165375] [ 1] [0x7fffdb216b40]
[h34n03:165375] [ 2] /lib64/libcuda.so.1(+0x10b4b0)[0x20000020b4b0]
[h34n03:165375] [ 3] /lib64/libcuda.so.1(cuStreamDestroy_v2+0x68)[0x2000003d40c8]
[h34n03:165375] [ 4] /sw/summit/cuda/10.1.243/lib64/libcudart.so.10.1(+0xe354)[0x2000010fe354]
[h34n03:165375] [ 5] /sw/summit/cuda/10.1.243/lib64/libcudart.so.10.1(cudaStreamDestroy+0x228)[0x20000113bf48]
[h34n03:165375] [ 6] /ccs/home/tgroves/tmp/nvshmem_0.3.0/perftest/perftest_install/host/pt-to-pt/stream_latency[0x1000449c]
[h34n03:165375] [ 7] /lib64/libc.so.6(+0x25200)[0x200001775200]
[h34n03:165375] [ 8] /lib64/libc.so.6(__libc_start_main+0xc4)[0x2000017753f4]
[h34n03:165375] *** End of error message ***
ERROR:  One or more process (first noticed rank 1) terminated with signal 11
