num devices: 6
mype: 0 dev# 0 device name: Tesla V100-SXM2-16GB bus id: 4 pci-e device id: 0 
num devices: 6
mype: 0 dev# 0 device name: Tesla V100-SXM2-16GB bus id: 4 pci-e device id: 0 
setting rate limit to:   3125
setting burst_size to:  100
setting rate limit to:   3125
setting burst_size to:  100
WARN: IB HCA and GPU are not connected to a PCIe switch so IB performance can be limited depending on the CPU generation 
Size(Bytes) 		 BurstSize 		 RateLimit(MB/sec) 		 BW(MB/sec)
         4 		  100 		   3125 		   2.92 
         8 		  100 		   3125 		   5.84 
        16 		  100 		   3125 		  11.67 
        32 		  100 		   3125 		  23.22 
        64 		  100 		   3125 		  46.07 
       128 		  100 		   3125 		  90.60 
       256 		  100 		   3125 		 175.19 
       512 		  100 		   3125 		 343.06 
      1024 		  100 		   3125 		 647.85 
      2048 		  100 		   3125 		 1146.54 
      4096 		  100 		   3125 		 1867.14 
      8192 		  100 		   3125 		 2607.47 
     16384 		  100 		   3125 		 3711.93 
     32768 		  100 		   3125 		 4981.19 
     65536 		  100 		   3125 		 6982.62 
    131072 		  100 		   3125 		 8606.62 
    262144 		  100 		   3125 		 9957.38 
    524288 		  100 		   3125 		 10792.96 
   1048576 		  100 		   3125 		 11271.62 
