num devices: 6
mype: 0 dev# 0 device name: Tesla V100-SXM2-16GB bus id: 4 pci-e device id: 0 
num devices: 6
mype: 0 dev# 0 device name: Tesla V100-SXM2-16GB bus id: 4 pci-e device id: 0 
WARN: IB HCA and GPU are not connected to a PCIe switch so IB performance can be limited depending on the CPU generation 
   Put with thread 
   size(bytes) 	 latency(us)
      4 	     5.88 
      8 	     5.91 
     16 	     6.14 
     32 	     5.89 
     64 	     5.89 
    128 	     5.90 
    256 	     6.03 
    512 	     6.05 
   1024 	     6.12 
   2048 	     6.41 
   4096 	     6.68 
   8192 	     7.98 
  16384 	     9.23 
  32768 	    11.38 
  65536 	    14.06 
 131072 	    19.37 
 262144 	    29.95 
 524288 	    51.18 
1048576 	    93.82 
   Put with warp 
   size(bytes) 	 latency(us)
      4 	    10.72 
      8 	    10.79 
     16 	    10.74 
     32 	    10.80 
     64 	    10.79 
    128 	    10.81 
    256 	    10.86 
    512 	    10.88 
   1024 	    10.89 
   2048 	    11.15 
   4096 	    11.51 
   8192 	    12.84 
  16384 	    14.11 
  32768 	    16.23 
  65536 	    18.77 
 131072 	    24.19 
 262144 	    34.77 
 524288 	    56.01 
1048576 	    98.54 
   Put with block 
   size(bytes) 	 latency(us)
      4 	    10.90 
      8 	    10.89 
     16 	    10.93 
     32 	    10.90 
     64 	    10.93 
    128 	    10.95 
    256 	    11.03 
    512 	    10.98 
   1024 	    11.03 
   2048 	    11.30 
   4096 	    11.66 
   8192 	    12.94 
  16384 	    14.25 
  32768 	    16.39 
  65536 	    18.97 
 131072 	    24.34 
 262144 	    34.91 
 524288 	    56.16 
1048576 	    98.68 
