num devices: 6
num devices: 6
mype: 0 dev# 0 device name: Tesla V100-SXM2-16GB bus id: 4 pci-e device id: 0 
mype: 0 dev# 0 device name: Tesla V100-SXM2-16GB bus id: 4 pci-e device id: 0 
WARN: IB HCA and GPU are not connected to a PCIe switch so IB performance can be limited depending on the CPU generation 
Note: This test measures full round-trip latency
   size(bytes) 	 latency(us)
      4 	    12.77 
      8 	    12.73 
     16 	    12.67 
     32 	    12.70 
     64 	    12.66 
    128 	    12.71 
    256 	    12.67 
    512 	    12.71 
   1024 	    12.66 
   2048 	    12.69 
   4096 	    12.68 
   8192 	    12.68 
  16384 	    13.04 
  32768 	    15.12 
  65536 	    17.74 
 131072 	    23.31 
 262144 	    33.72 
 524288 	    55.25 
1048576 	    97.53 
