num devices: 6
mype: 0 dev# 0 device name: Tesla V100-SXM2-16GB bus id: 4 pci-e device id: 0 
num devices: 6
mype: 0 dev# 0 device name: Tesla V100-SXM2-16GB bus id: 4 pci-e device id: 0 
setting rate limit to:   6250
setting burst_size to: 1000
setting rate limit to:   6250
setting burst_size to: 1000
WARN: IB HCA and GPU are not connected to a PCIe switch so IB performance can be limited depending on the CPU generation 
Size(Bytes) 		 BurstSize 		 RateLimit(MB/sec) 		 BW(MB/sec)
         4 		 1000 		   6250 		   2.90 
         8 		 1000 		   6250 		   5.80 
        16 		 1000 		   6250 		  11.60 
        32 		 1000 		   6250 		  23.02 
        64 		 1000 		   6250 		  45.83 
       128 		 1000 		   6250 		  90.02 
       256 		 1000 		   6250 		 174.19 
       512 		 1000 		   6250 		 340.65 
      1024 		 1000 		   6250 		 644.00 
      2048 		 1000 		   6250 		 1140.18 
      4096 		 1000 		   6250 		 1858.44 
      8192 		 1000 		   6250 		 2579.92 
     16384 		 1000 		   6250 		 3682.28 
     32768 		 1000 		   6250 		 4955.13 
     65536 		 1000 		   6250 		 6976.38 
    131072 		 1000 		   6250 		 8535.86 
    262144 		 1000 		   6250 		 9910.84 
    524288 		 1000 		   6250 		 10777.49 
   1048576 		 1000 		   6250 		 11273.93 
